{
  "name": "@tripetto/runner-autoscroll",
  "main": "./runner/types/bundle/index.d.ts",
  "out": "../../../runner/types/index.d.ts",
  "newline": "\n",
  "verbose": false,
  "referenceExternals": false,
  "headerText": "! BANNER "
}
